module example.com/crocosoft

go 1.16

require (
	github.com/asaskevich/govalidator v0.0.0-20210307081110-f21760c49a8d // indirect
	github.com/go-ozzo/ozzo-validation v3.6.0+incompatible
	github.com/gofiber/fiber/v2 v2.29.0
	github.com/joho/godotenv v1.4.0
	go.mongodb.org/mongo-driver v1.8.4
)
